Parameterized_modules/FMUL32/out.vcd
$date
	Mon Aug 26 20:56:40 2024
$end
$version
	Icarus Verilog
$end
$timescale
	1ns
$end
$scope module fmul_top $end
$var wire 32 ! result [31:0] $end
$var wire 1 " reset $end
$var wire 1 # clk $end
$var reg 32 $ op1 [31:0] $end
$var reg 32 % op2 [31:0] $end
$var reg 2 & opcode [1:0] $end
$var reg 32 ' res_eth [31:0] $end
$var reg 2 ( rmode [1:0] $end
$var integer 32 ) g [31:0] $end
$var integer 32 * i [31:0] $end
$scope module fmul $end
$var wire 32 + op1 [31:0] $end
$var wire 32 , op2 [31:0] $end
$var wire 2 - opc [1:0] $end
$var wire 2 . r_mode [1:0] $end
$var wire 32 / result [31:0] $end
$var wire 1 0 val $end
$var wire 1 1 res_val $end
$var wire 1 2 res_sign $end
$var wire 1 3 res_ZERO $end
$var wire 2 4 res_NANs [1:0] $end
$var wire 1 5 res_INF $end
$var wire 1 6 prev_overflow $end
$var wire 48 7 prev_mant_res [47:0] $end
$var wire 1 8 prev_inf $end
$var wire 1 9 not_full_norm $end
$var wire 10 : mant_shift [9:0] $end
$var wire 23 ; mant_rounded [22:0] $end
$var wire 1 < mant_overfl $end
$var wire 48 = mant_norm [47:0] $end
$var wire 24 > mant_B [23:0] $end
$var wire 24 ? mant_A [23:0] $end
$var wire 8 @ leading_zero_num [7:0] $end
$var wire 1 A is_op_val_B $end
$var wire 1 B is_op_val_A $end
$var wire 1 C is_ZERO_B $end
$var wire 1 D is_ZERO_A $end
$var wire 2 E is_NAN_B [1:0] $end
$var wire 2 F is_NAN_A [1:0] $end
$var wire 1 G is_INF_B $end
$var wire 1 H is_INF_A $end
$var wire 10 I exp_res [9:0] $end
$var wire 1 J exp_incr $end
$var wire 8 K exp_fin [7:0] $end
$var wire 8 L exp_B [7:0] $end
$var wire 8 M exp_A [7:0] $end
$var wire 8 N denorm_shift [7:0] $end
$var wire 2 O denorm_AB [1:0] $end
$var wire 1 # clk $end
$var wire 5 P a [4:0] $end
$var wire 1 Q MUL $end
$var wire 1 R INV_S $end
$var wire 1 S IDLE $end
$var wire 1 T ABS_W $end
$var reg 2 U denorm_AB_1ST [1:0] $end
$var reg 2 V denorm_AB_2ST [1:0] $end
$var reg 8 W denorm_shift_2ST [7:0] $end
$var reg 2 X exp_condition_2ST [1:0] $end
$var reg 10 Y exp_res_1ST [9:0] $end
$var reg 8 Z exp_res_2ST [7:0] $end
$var reg 24 [ mant_A_1ST [23:0] $end
$var reg 23 \ mant_A_2ST [22:0] $end
$var reg 24 ] mant_B_1ST [23:0] $end
$var reg 23 ^ mant_B_2ST [22:0] $end
$var reg 2 _ op_NAN_1ST [1:0] $end
$var reg 2 ` op_NAN_2ST [1:0] $end
$var reg 48 a prev_mant_res_2ST [47:0] $end
$var reg 6 b prev_res_1ST [5:0] $end
$var reg 6 c prev_res_2ST [5:0] $end
$var reg 2 d rounding_mode_1ST [1:0] $end
$var reg 2 e rounding_mode_2ST [1:0] $end
$scope module exp_res_form $end
$var wire 2 f denorm_AB [1:0] $end
$var wire 8 g denorm_shift [7:0] $end
$var wire 2 h exp_condition [1:0] $end
$var wire 8 i exp_res_tmp [7:0] $end
$var wire 4 j prev_res [3:0] $end
$var wire 1 9 not_full_norm $end
$var wire 8 k leading_zero_num [7:0] $end
$var wire 1 J exp_incr $end
$var wire 8 l exp_fin [7:0] $end
$upscope $end
$scope module exp_sum $end
$var wire 2 m denorm_AB [1:0] $end
$var wire 10 n exp_res [9:0] $end
$var wire 8 o exp_B [7:0] $end
$var wire 8 p exp_A [7:0] $end
$upscope $end
$scope module exp_sum_analiz $end
$var wire 10 q exp_res_tmp [9:0] $end
$var wire 1 r prev_denorm $end
$var wire 1 8 prev_inf $end
$var wire 1 6 prev_overflow $end
$var wire 8 s denorm_shift [7:0] $end
$upscope $end
$scope module mant_mul $end
$var wire 24 t mant_A [23:0] $end
$var wire 24 u mant_B [23:0] $end
$var wire 48 v prev_mant_res [47:0] $end
$upscope $end
$scope module normalization_module $end
$var wire 2 w denorm_AB [1:0] $end
$var wire 8 x denorm_shift [7:0] $end
$var wire 2 y exp_condition [1:0] $end
$var wire 8 z exp_res_tmp [7:0] $end
$var wire 1 { leading_zero_23 $end
$var wire 1 | norm_condition $end
$var wire 1 } res_denorm $end
$var wire 48 ~ vector [47:0] $end
$var wire 10 !" shift_tmp [9:0] $end
$var wire 48 "" out [47:0] $end
$var wire 1 9 not_full_norm $end
$var wire 10 #" mant_shift [9:0] $end
$var wire 10 $" leading_zero_tmp [9:0] $end
$var wire 8 %" leading_zero_num [7:0] $end
$var wire 1 J exp_incr $end
$var wire 5 &" a [4:0] $end
$scope module leading_zero_counter_1 $end
$var wire 48 '" vector [47:0] $end
$var wire 8 (" zero_num [7:0] $end
$scope begin loop[0] $end
$scope begin genblk2 $end
$upscope $end
$upscope $end
$scope begin loop[1] $end
$scope begin genblk3 $end
$upscope $end
$upscope $end
$scope begin loop[2] $end
$scope begin genblk3 $end
$upscope $end
$upscope $end
$scope begin loop[3] $end
$scope begin genblk3 $end
$upscope $end
$upscope $end
$scope begin loop[4] $end
$scope begin genblk3 $end
$upscope $end
$upscope $end
$scope begin loop[5] $end
$scope begin genblk3 $end
$upscope $end
$upscope $end
$scope begin loop[6] $end
$scope begin genblk3 $end
$upscope $end
$upscope $end
$scope begin loop[7] $end
$scope begin genblk3 $end
$upscope $end
$upscope $end
$scope begin loop[8] $end
$scope begin genblk3 $end
$upscope $end
$upscope $end
$scope begin loop[9] $end
$scope begin genblk3 $end
$upscope $end
$upscope $end
$scope begin loop[10] $end
$scope begin genblk3 $end
$upscope $end
$upscope $end
$scope begin loop[11] $end
$scope begin genblk3 $end
$upscope $end
$upscope $end
$scope begin loop[12] $end
$scope begin genblk3 $end
$upscope $end
$upscope $end
$scope begin loop[13] $end
$scope begin genblk3 $end
$upscope $end
$upscope $end
$scope begin loop[14] $end
$scope begin genblk3 $end
$upscope $end
$upscope $end
$scope begin loop[15] $end
$scope begin genblk3 $end
$upscope $end
$upscope $end
$scope begin loop[16] $end
$scope begin genblk3 $end
$upscope $end
$upscope $end
$scope begin loop[17] $end
$scope begin genblk3 $end
$upscope $end
$upscope $end
$scope begin loop[18] $end
$scope begin genblk3 $end
$upscope $end
$upscope $end
$scope begin loop[19] $end
$scope begin genblk3 $end
$upscope $end
$upscope $end
$scope begin loop[20] $end
$scope begin genblk3 $end
$upscope $end
$upscope $end
$scope begin loop[21] $end
$scope begin genblk3 $end
$upscope $end
$upscope $end
$scope begin loop[22] $end
$scope begin genblk3 $end
$upscope $end
$upscope $end
$scope begin loop[23] $end
$scope begin genblk3 $end
$upscope $end
$upscope $end
$scope begin loop[24] $end
$scope begin genblk3 $end
$upscope $end
$upscope $end
$scope begin loop[25] $end
$scope begin genblk3 $end
$upscope $end
$upscope $end
$scope begin loop[26] $end
$scope begin genblk3 $end
$upscope $end
$upscope $end
$scope begin loop[27] $end
$scope begin genblk3 $end
$upscope $end
$upscope $end
$scope begin loop[28] $end
$scope begin genblk3 $end
$upscope $end
$upscope $end
$scope begin loop[29] $end
$scope begin genblk3 $end
$upscope $end
$upscope $end
$scope begin loop[30] $end
$scope begin genblk3 $end
$upscope $end
$upscope $end
$scope begin loop[31] $end
$scope begin genblk3 $end
$upscope $end
$upscope $end
$scope begin loop[32] $end
$scope begin genblk3 $end
$upscope $end
$upscope $end
$scope begin loop[33] $end
$scope begin genblk3 $end
$upscope $end
$upscope $end
$scope begin loop[34] $end
$scope begin genblk3 $end
$upscope $end
$upscope $end
$scope begin loop[35] $end
$scope begin genblk3 $end
$upscope $end
$upscope $end
$scope begin loop[36] $end
$scope begin genblk3 $end
$upscope $end
$upscope $end
$scope begin loop[37] $end
$scope begin genblk3 $end
$upscope $end
$upscope $end
$scope begin loop[38] $end
$scope begin genblk3 $end
$upscope $end
$upscope $end
$scope begin loop[39] $end
$scope begin genblk3 $end
$upscope $end
$upscope $end
$scope begin loop[40] $end
$scope begin genblk3 $end
$upscope $end
$upscope $end
$scope begin loop[41] $end
$scope begin genblk3 $end
$upscope $end
$upscope $end
$scope begin loop[42] $end
$scope begin genblk3 $end
$upscope $end
$upscope $end
$scope begin loop[43] $end
$scope begin genblk3 $end
$upscope $end
$upscope $end
$scope begin loop[44] $end
$scope begin genblk3 $end
$upscope $end
$upscope $end
$scope begin loop[45] $end
$scope begin genblk3 $end
$upscope $end
$upscope $end
$scope begin loop[46] $end
$scope begin genblk3 $end
$upscope $end
$upscope $end
$scope begin loop[47] $end
$scope begin genblk3 $end
$upscope $end
$upscope $end
$upscope $end
$upscope $end
$scope module operand_A $end
$var wire 1 )" DENORM $end
$var wire 1 H INF $end
$var wire 1 *" NAN $end
$var wire 1 D ZERO $end
$var wire 32 +" digit [31:0] $end
$var wire 1 B op_val $end
$var wire 1 ," sNAN $end
$var wire 1 -" qNAN $end
$var wire 24 ." mant [23:0] $end
$var wire 8 /" exp [7:0] $end
$var wire 2 0" NANs [1:0] $end
$upscope $end
$scope module operand_B $end
$var wire 1 1" DENORM $end
$var wire 1 G INF $end
$var wire 1 2" NAN $end
$var wire 1 C ZERO $end
$var wire 32 3" digit [31:0] $end
$var wire 1 A op_val $end
$var wire 1 4" sNAN $end
$var wire 1 5" qNAN $end
$var wire 24 6" mant [23:0] $end
$var wire 8 7" exp [7:0] $end
$var wire 2 8" NANs [1:0] $end
$upscope $end
$scope module operation_analyzer $end
$var wire 2 9" operation [1:0] $end
$var wire 1 Q MUL $end
$var wire 1 R INV_S $end
$var wire 1 S IDLE $end
$var wire 1 T ABS_W $end
$upscope $end
$scope module prev_res $end
$var wire 1 T ABS_W $end
$var wire 1 S IDLE $end
$var wire 1 R INV_S $end
$var wire 1 Q MUL $end
$var wire 1 H operand_A_INF $end
$var wire 2 :" operand_A_NAN [1:0] $end
$var wire 1 D operand_A_ZERO $end
$var wire 1 ;" operand_A_sign $end
$var wire 1 B operand_A_val $end
$var wire 1 G operand_B_INF $end
$var wire 2 <" operand_B_NAN [1:0] $end
$var wire 1 C operand_B_ZERO $end
$var wire 1 =" operand_B_sign $end
$var wire 1 A operand_B_val $end
$var wire 1 5 res_INF $end
$var wire 1 3 res_ZERO $end
$var wire 1 2 res_sign $end
$var wire 1 1 res_val $end
$var wire 2 >" res_NANs [1:0] $end
$upscope $end
$scope module rounding_module $end
$var wire 48 ?" data [47:0] $end
$var wire 23 @" mant_A [22:0] $end
$var wire 23 A" mant_B [22:0] $end
$var wire 1 B" mant_incr $end
$var wire 1 < mant_overfl $end
$var wire 2 C" op_NAN [1:0] $end
$var wire 2 D" rouding_mode [1:0] $end
$var wire 1 E" sign_bit $end
$var wire 1 F" sticky_bit $end
$var wire 1 G" rounding_bit $end
$var wire 23 H" mant [22:0] $end
$var wire 1 I" guard_bit $end
$upscope $end
$upscope $end
$scope module sys_sig $end
$var reg 1 # clk $end
$var reg 1 " reset $end
$upscope $end
$upscope $end
$enddefinitions $end
#0
$dumpvars
xI"
bx H"
xG"
xF"
xE"
bx D"
bx C"
xB"
bx A"
bx @"
bx ?"
bx >"
x="
bx <"
x;"
bx :"
b0 9"
bx 8"
bx 7"
bx 6"
x5"
x4"
bx 3"
x2"
x1"
bx 0"
bx /"
bx ."
x-"
x,"
bx +"
x*"
x)"
b0xxxxxx ("
bx '"
bx &"
b0xxxxxx %"
bx $"
bx #"
bx ""
bx !"
bx ~
x}
x|
x{
bx z
bx y
bx x
bx w
bx v
bx u
bx t
bx s
xr
bx q
bx p
bx o
bx n
bx m
bx l
b0xxxxxx k
bx j
bx i
bx h
bx g
bx f
bx e
bx d
bx c
bx b
bx a
bx `
bx _
bx ^
bx ]
bx \
bx [
bx Z
bx Y
bx X
bx W
bx V
bx U
0T
0S
0R
1Q
bx P
bx O
bx N
bx M
bx L
bx K
xJ
bx I
xH
xG
bx F
bx E
xD
xC
xB
xA
b0xxxxxx @
bx ?
bx >
bx =
x<
bx ;
bx :
x9
x8
bx 7
x6
x5
bx 4
x3
x2
11
x0
bx /
b0 .
b0 -
bx ,
bx +
b0 *
b0 )
b0 (
bx '
b0 &
bx %
bx $
0#
0"
bx !
$end
#1
05"
b0 E
b0 8"
b0 <"
04"
0-"
b0 F
b0 0"
b0 :"
0,"
03
02
05
1A
b0 4
b0 >"
1B
01"
0C
b0 O
b0 m
0)"
0D
0G
02"
0H
0*"
0="
b1101100 I
b1101100 n
b10110110 L
b10110110 o
b10110110 7"
b111111000011110010101011 >
b111111000011110010101011 6"
0;"
b110101 M
b110101 p
b110101 /"
b101001100001000100111111 ?
b101001100001000100111111 ."
1"
b0 d
bx1xxxx b
b1011011011111000011110010101011 %
b1011011011111000011110010101011 ,
b1011011011111000011110010101011 3"
b11010101001100001000100111111 $
b11010101001100001000100111111 +
b11010101001100001000100111111 +"
b1 )
1#
#2
0#
#3
b0 N
b0 s
0r
08
b100000 L
b100000 o
b100000 7"
b110110100001101100101000 >
b110110100001101100101000 6"
b1110110010 I
b1110110010 n
b10001 M
b10001 p
b10001 /"
b101100111000011010101001 ?
b101100111000011010101001 ."
10
06
b10000010110100001101100101000 %
b10000010110100001101100101000 ,
b10000010110100001101100101000 3"
b1000101100111000011010101001 $
b1000101100111000011010101001 +
b1000101100111000011010101001 +"
b0 e
b0 D"
bx1xxxx c
b0 U
b0 _
b10000 b
b1101100 Y
b1101100 q
b101000111010000001010100111111000100100100010101 7
b101000111010000001010100111111000100100100010101 v
b111111000011110010101011 ]
b111111000011110010101011 u
b101001100001000100111111 [
b101001100001000100111111 t
b10 )
1#
#4
0#
#5
b1000111010000001010101 ;
b1000111010000001010101 H"
1B"
0<
0G"
1I"
1F"
b101000111010000001010100111111000100100100010101 =
b101000111010000001010100111111000100100100010101 ""
b101000111010000001010100111111000100100100010101 ?"
b0 :
b0 #"
0|
1{
0}
b1001 P
b1001 &"
b1111101001 $"
b0 !"
09
b0 @
b0 k
b0 %"
b0 ("
b1101101 K
b1101101 l
b1001111 N
b1001111 s
b110110101000111010000001010101 !
b110110101000111010000001010101 /
1r
1J
0E"
b0 j
b10001010 L
b10001010 o
b10001010 7"
b111100101110101010110011 >
b111100101110101010110011 6"
b11111000 I
b11111000 n
b11101101 M
b11101101 p
b11101101 /"
b101010110000000110001000 ?
b101010110000000110001000 ."
b1110110010 Y
b1110110010 q
b110110100001101100101000 ]
b110110100001101100101000 u
b100110001111001110110111001010101101110101101000 7
b100110001111001110110111001010101101110101101000 v
b101100111000011010101001 [
b101100111000011010101001 t
b0 V
b0 f
b0 w
b11111000011110010101011 ^
b11111000011110010101011 A"
b1001100001000100111111 \
b1001100001000100111111 @"
b0 `
b0 C"
b101000111010000001010100111111000100100100010101 a
b101000111010000001010100111111000100100100010101 ~
b101000111010000001010100111111000100100100010101 '"
b0 X
b0 h
b0 y
b0 W
b0 g
b0 x
b10000 c
b1101100 Z
b1101100 i
b1101100 z
b1000101011100101110101010110011 %
b1000101011100101110101010110011 ,
b1000101011100101110101010110011 3"
b1110110101010110000000110001000 $
b1110110101010110000000110001000 +
b1110110101010110000000110001000 +"
b110110101000111010000001010101 '
b11 )
1#
#6
0"
0#
#7
b0 ;
b0 H"
b0 !
b0 /
0F"
b0 K
b0 l
b1001110 :
b1001110 #"
b0 N
b0 s
0B"
0G"
0I"
0r
b1110011 L
b1110011 o
b1110011 7"
b110110110010111100010011 >
b110110110010111100010011 6"
b111100 I
b111100 n
b1001000 M
b1001000 p
b1001000 /"
b110011001011110011000100 ?
b110011001011110011000100 ."
b0 =
b0 ""
b0 ?"
b111001110110110010111100010011 %
b111001110110110010111100010011 ,
b111001110110110010111100010011 3"
b100100010011001011110011000100 $
b100100010011001011110011000100 +
b100100010011001011110011000100 +"
b10110100001101100101000 ^
b10110100001101100101000 A"
b1100111000011010101001 \
b1100111000011010101001 @"
b100110001111001110110111001010101101110101101000 a
b100110001111001110110111001010101101110101101000 ~
b100110001111001110110111001010101101110101101000 '"
b1001111 !"
b1001111 W
b1001111 g
b1001111 x
b10110010 Z
b10110010 i
b10110010 z
b11111000 Y
b11111000 q
b111100101110101010110011 ]
b111100101110101010110011 u
b101000100100010000111001100010000110001000011000 7
b101000100100010000111001100010000110001000011000 v
b101010110000000110001000 [
b101010110000000110001000 t
b0 '
b100 )
1#
b1 *
#8
0#
#9
b1000100100010000111010 ;
b1000100100010000111010 H"
b1111100101000100100010000111010 !
b1111100101000100100010000111010 /
1B"
b11111001 K
b11111001 l
1G"
1I"
1F"
b101000100100010000111001100010000110001000011000 =
b101000100100010000111001100010000110001000011000 ""
b101000100100010000111001100010000110001000011000 ?"
b0 :
b0 #"
b11011101 L
b11011101 o
b11011101 7"
b111011011011100010110100 >
b111011011011100010110100 6"
b10000010 I
b10000010 n
b100100 M
b100100 p
b100100 /"
b101101100011011100010100 ?
b101101100011011100010100 ."
b111100 Y
b111100 q
b110110110010111100010011 ]
b110110110010111100010011 u
b101011110100101100100001100001011111111010001100 7
b101011110100101100100001100001011111111010001100 v
b110011001011110011000100 [
b110011001011110011000100 t
b11100101110101010110011 ^
b11100101110101010110011 A"
b1010110000000110001000 \
b1010110000000110001000 @"
b101000100100010000111001100010000110001000011000 a
b101000100100010000111001100010000110001000011000 ~
b101000100100010000111001100010000110001000011000 '"
b0 !"
b0 W
b0 g
b0 x
b11111000 Z
b11111000 i
b11111000 z
b1101110111011011011100010110100 %
b1101110111011011011100010110100 ,
b1101110111011011011100010110100 3"
b10010001101100011011100010100 $
b10010001101100011011100010100 +
b10010001101100011011100010100 +"
b1111100101000100100010000111010 '
b101 )
1#
b10 *
#10
0#
#11
b1011110100101100100010 ;
b1011110100101100100010 H"
b11110101011110100101100100010 !
b11110101011110100101100100010 /
b111101 K
b111101 l
b1000111 L
b1000111 o
b1000111 7"
b101000001010100110111111 >
b101000001010100110111111 6"
b1000111 I
b1000111 n
b1111111 M
b1111111 p
b1111111 /"
b111011001000010011100101 ?
b111011001000010011100101 ."
b101011110100101100100001100001011111111010001100 =
b101011110100101100100001100001011111111010001100 ""
b101011110100101100100001100001011111111010001100 ?"
b100011101000001010100110111111 %
b100011101000001010100110111111 ,
b100011101000001010100110111111 3"
b111111111011001000010011100101 $
b111111111011001000010011100101 +
b111111111011001000010011100101 +"
b10110110010111100010011 ^
b10110110010111100010011 A"
b10011001011110011000100 \
b10011001011110011000100 @"
b101011110100101100100001100001011111111010001100 a
b101011110100101100100001100001011111111010001100 ~
b101011110100101100100001100001011111111010001100 '"
b111100 Z
b111100 i
b111100 z
b10000010 Y
b10000010 q
b111011011011100010110100 ]
b111011011011100010110100 u
b101010010011010001110101001110010001101000010000 7
b101010010011010001110101001110010001101000010000 v
b101101100011011100010100 [
b101101100011011100010100 t
b11110101011110100101100100010 '
b110 )
1#
b11 *
#12
0#
#13
b1010010011010001110101 ;
b1010010011010001110101 H"
b1000001101010010011010001110101 !
b1000001101010010011010001110101 /
b10000011 K
b10000011 l
0B"
0I"
b101010010011010001110101001110010001101000010000 =
b101010010011010001110101001110010001101000010000 ""
b101010010011010001110101001110010001101000010000 ?"
b10110001 L
b10110001 o
b10110001 7"
b101100000011011110100100 >
b101100000011011110100100 6"
b10001101 I
b10001101 n
b1011011 M
b1011011 p
b1011011 /"
b110111001011011100111111 ?
b110111001011011100111111 ."
b1000111 Y
b1000111 q
b101000001010100110111111 ]
b101000001010100110111111 u
b100101000110111111100011010100100101001111011011 7
b100101000110111111100011010100100101001111011011 v
b111011001000010011100101 [
b111011001000010011100101 t
b11011011011100010110100 ^
b11011011011100010110100 A"
b1101100011011100010100 \
b1101100011011100010100 @"
b101010010011010001110101001110010001101000010000 a
b101010010011010001110101001110010001101000010000 ~
b101010010011010001110101001110010001101000010000 '"
b10000010 Z
b10000010 i
b10000010 z
b1011000101100000011011110100100 %
b1011000101100000011011110100100 ,
b1011000101100000011011110100100 3"
b101101110111001011011100111111 $
b101101110111001011011100111111 +
b101101110111001011011100111111 +"
b1000001101010010011010001110101 '
b111 )
1#
b100 *
#14
0#
#15
b101000110111111100011 ;
b101000110111111100011 H"
b100100000101000110111111100011 !
b100100000101000110111111100011 /
b1001000 K
b1001000 l
b11011 L
b11011 o
b11011 7"
b110001110100110100111100 >
b110001110100110100111100 6"
b1111010011 I
b1111010011 n
b110111 M
b110111 p
b110111 /"
b111111110111101011111001 ?
b111111110111101011111001 ."
b100101000110111111100011010100100101001111011011 =
b100101000110111111100011010100100101001111011011 ""
b100101000110111111100011010100100101001111011011 ?"
b1101110001110100110100111100 %
b1101110001110100110100111100 ,
b1101110001110100110100111100 3"
b11011111111110111101011111001 $
b11011111111110111101011111001 +
b11011111111110111101011111001 +"
b1000001010100110111111 ^
b1000001010100110111111 A"
b11011001000010011100101 \
b11011001000010011100101 @"
b100101000110111111100011010100100101001111011011 a
b100101000110111111100011010100100101001111011011 ~
b100101000110111111100011010100100101001111011011 '"
b1000111 Z
b1000111 i
b1000111 z
b10001101 Y
b10001101 q
b101100000011011110100100 ]
b101100000011011110100100 u
b100101111110110111110100000100111110110101011100 7
b100101111110110111110100000100111110110101011100 v
b110111001011011100111111 [
b110111001011011100111111 t
b100100000101000110111111100011 '
b1000 )
1#
b101 *
#16
0#
#17
b101111110110111110100 ;
b101111110110111110100 H"
b1000111000101111110110111110100 !
b1000111000101111110110111110100 /
b10001110 K
b10001110 l
b101110 N
b101110 s
1r
0G"
b100101111110110111110100000100111110110101011100 =
b100101111110110111110100000100111110110101011100 ""
b100101111110110111110100000100111110110101011100 ?"
b10000100 L
b10000100 o
b10000100 7"
b111101100111110001001101 >
b111101100111110001001101 6"
b10011000 I
b10011000 n
b10010011 M
b10010011 p
b10010011 /"
b101001110010000100011111 ?
b101001110010000100011111 ."
b1111010011 Y
b1111010011 q
b110001110100110100111100 ]
b110001110100110100111100 u
b110001101110010110101011011011001011011101011100 7
b110001101110010110101011011011001011011101011100 v
b111111110111101011111001 [
b111111110111101011111001 t
b1100000011011110100100 ^
b1100000011011110100100 A"
b10111001011011100111111 \
b10111001011011100111111 @"
b100101111110110111110100000100111110110101011100 a
b100101111110110111110100000100111110110101011100 ~
b100101111110110111110100000100111110110101011100 '"
b10001101 Z
b10001101 i
b10001101 z
b1000010011101100111110001001101 %
b1000010011101100111110001001101 ,
b1000010011101100111110001001101 3"
b1001001101001110010000100011111 $
b1001001101001110010000100011111 +
b1001001101001110010000100011111 +"
b1000111000101111110110111110100 '
b1001 )
1#
b110 *
#18
0#
#19
b0 ;
b0 H"
b0 !
b0 /
b0 K
b0 l
b101101 :
b101101 #"
b0 N
b0 s
0G"
0r
b1101110 L
b1101110 o
b1101110 7"
b111111010110000101111111 >
b111111010110000101111111 6"
b1011110 I
b1011110 n
b1101111 M
b1101111 p
b1101111 /"
b100101101101110101010011 ?
b100101101101110101010011 ."
b110 =
b110 ""
b110 ?"
b110111011111010110000101111111 %
b110111011111010110000101111111 ,
b110111011111010110000101111111 3"
b110111100101101101110101010011 $
b110111100101101101110101010011 +
b110111100101101101110101010011 +"
b10001110100110100111100 ^
b10001110100110100111100 A"
b11111110111101011111001 \
b11111110111101011111001 @"
b110001101110010110101011011011001011011101011100 a
b110001101110010110101011011011001011011101011100 ~
b110001101110010110101011011011001011011101011100 '"
b101110 !"
b101110 W
b101110 g
b101110 x
b11010011 Z
b11010011 i
b11010011 z
b10011000 Y
b10011000 q
b111101100111110001001101 ]
b111101100111110001001101 u
b101000001110101011111010000110011111101001010011 7
b101000001110101011111010000110011111101001010011 v
b101001110010000100011111 [
b101001110010000100011111 t
b0 '
b1010 )
1#
b111 *
#20
0#
#21
b1000001110101011111010 ;
b1000001110101011111010 H"
b1001100101000001110101011111010 !
b1001100101000001110101011111010 /
b10011001 K
b10011001 l
b0 :
b0 #"
b101000001110101011111010000110011111101001010011 =
b101000001110101011111010000110011111101001010011 ""
b101000001110101011111010000110011111101001010011 ?"
b1011000 L
b1011000 o
b1011000 7"
b110100001110100011010111 >
b110100001110100011010111 6"
b10100100 I
b10100100 n
b11001011 M
b11001011 p
b11001011 /"
b100101000001010011101010 ?
b100101000001010011101010 ."
b1011110 Y
b1011110 q
b111111010110000101111111 ]
b111111010110000101111111 u
b100101010101001000101111101110110011111100101101 7
b100101010101001000101111101110110011111100101101 v
b100101101101110101010011 [
b100101101101110101010011 t
b11101100111110001001101 ^
b11101100111110001001101 A"
b1001110010000100011111 \
b1001110010000100011111 @"
b101000001110101011111010000110011111101001010011 a
b101000001110101011111010000110011111101001010011 ~
b101000001110101011111010000110011111101001010011 '"
b0 !"
b0 W
b0 g
b0 x
b10011000 Z
b10011000 i
b10011000 z
b101100010100001110100011010111 %
b101100010100001110100011010111 ,
b101100010100001110100011010111 3"
b1100101100101000001010011101010 $
b1100101100101000001010011101010 +
b1100101100101000001010011101010 +"
b1001100101000001110101011111010 '
b1011 )
1#
b1000 *
#22
0#
#23
b101010101001000110000 ;
b101010101001000110000 H"
b101111100101010101001000110000 !
b101111100101010101001000110000 /
b1011111 K
b1011111 l
1B"
1G"
1I"
b11000010 L
b11000010 o
b11000010 7"
b111111101010010111000100 >
b111111101010010111000100 6"
b11101010 I
b11101010 n
b10100111 M
b10100111 p
b10100111 /"
b101111110010001111011100 ?
b101111110010001111011100 ."
b100101010101001000101111101110110011111100101101 =
b100101010101001000101111101110110011111100101101 ""
b100101010101001000101111101110110011111100101101 ?"
b1100001011111101010010111000100 %
b1100001011111101010010111000100 ,
b1100001011111101010010111000100 3"
b1010011101111110010001111011100 $
b1010011101111110010001111011100 +
b1010011101111110010001111011100 +"
b11111010110000101111111 ^
b11111010110000101111111 A"
b101101101110101010011 \
b101101101110101010011 @"
b100101010101001000101111101110110011111100101101 a
b100101010101001000101111101110110011111100101101 ~
b100101010101001000101111101110110011111100101101 '"
b1011110 Z
b1011110 i
b1011110 z
b10100100 Y
b10100100 q
b110100001110100011010111 ]
b110100001110100011010111 u
b11110001101011110101101011100011010000010000110 7
b11110001101011110101101011100011010000010000110 v
b100101000001010011101010 [
b100101000001010011101010 t
b101111100101010101001000110000 '
b1100 )
1#
b1001 *
#24
0#
#25
0G"
1F"
b1100000001 :
b1100000001 #"
0|
1{
b11001 P
b11001 &"
b1111101010 $"
b1111111111 !"
09
b1 @
b1 k
b1 %"
b1 ("
b11100011010111101011011 ;
b11100011010111101011011 H"
b1010010011100011010111101011011 !
b1010010011100011010111101011011 /
b10100100 K
b10100100 l
1B"
1I"
0J
b111100011010111101011010111000110100000100001100 =
b111100011010111101011010111000110100000100001100 ""
b111100011010111101011010111000110100000100001100 ?"
b10101011 L
b10101011 o
b10101011 7"
b110000100000011000010101 >
b110000100000011000010101 6"
b101101 I
b101101 n
b1 M
b1 p
b1 /"
b110111001010100011000010 ?
b110111001010100011000010 ."
b11101010 Y
b11101010 q
b111111101010010111000100 ]
b111111101010010111000100 u
b101111100010000101011000101111000100000001110000 7
b101111100010000101011000101111000100000001110000 v
b101111110010001111011100 [
b101111110010001111011100 t
b10100001110100011010111 ^
b10100001110100011010111 A"
b101000001010011101010 \
b101000001010011101010 @"
b11110001101011110101101011100011010000010000110 a
b11110001101011110101101011100011010000010000110 ~
b11110001101011110101101011100011010000010000110 '"
b10100100 Z
b10100100 i
b10100100 z
b1010101110000100000011000010101 %
b1010101110000100000011000010101 ,
b1010101110000100000011000010101 3"
b110111001010100011000010 $
b110111001010100011000010 +
b110111001010100011000010 +"
b1010010011100011010111101011011 '
b1101 )
1#
b1010 *
#26
0#
#27
1F"
b0 :
b0 #"
0|
1{
b1001 P
b1001 &"
b1111101001 $"
b0 !"
09
b0 @
b0 k
b0 %"
b0 ("
b1110101101111100010000101011001 !
b1110101101111100010000101011001 /
b11101011 K
b11101011 l
b1111100010000101011001 ;
b1111100010000101011001 H"
1B"
0G"
1I"
b10010101 L
b10010101 o
b10010101 7"
b101010110110101101101000 >
b101010110110101101101000 6"
b11110011 I
b11110011 n
b11011101 M
b11011101 p
b11011101 /"
b111110001001001111000101 ?
b111110001001001111000101 ."
1J
b101111100010000101011000101111000100000001110000 =
b101111100010000101011000101111000100000001110000 ""
b101111100010000101011000101111000100000001110000 ?"
b1001010101010110110101101101000 %
b1001010101010110110101101101000 ,
b1001010101010110110101101101000 3"
b1101110111110001001001111000101 $
b1101110111110001001001111000101 +
b1101110111110001001001111000101 +"
b11111101010010111000100 ^
b11111101010010111000100 A"
b1111110010001111011100 \
b1111110010001111011100 @"
b101111100010000101011000101111000100000001110000 a
b101111100010000101011000101111000100000001110000 ~
b101111100010000101011000101111000100000001110000 '"
b11101010 Z
b11101010 i
b11101010 z
b101101 Y
b101101 q
b110000100000011000010101 ]
b110000100000011000010101 u
b101001110011110100100001000100100110001111101010 7
b101001110011110100100001000100100110001111101010 v
b110111001010100011000010 [
b110111001010100011000010 t
b1110101101111100010000101011001 '
b1110 )
1#
b1011 *
#28
0#
