Parameterized_modules/LIFO_buffer/out_eth.vcd
$date
	Sat Jul 20 23:43:47 2024
$end
$version
	Icarus Verilog
$end
$timescale
	1ps
$end
$scope module testbench $end
$var reg 1 ! clk $end
$var reg 8 " data_in [7:0] $end
$var reg 1 # read $end
$var reg 1 $ reset $end
$var reg 1 % write $end
$scope module DUT $end
$var wire 1 ! clk $end
$var wire 8 & data_in [7:0] $end
$var wire 8 ' data_out [7:0] $end
$var wire 1 ( rd_wr_perm $end
$var wire 1 # read $end
$var wire 1 ) read_perm $end
$var wire 1 $ reset $end
$var wire 1 % write $end
$var wire 1 * write_perm $end
$var wire 1 + val $end
$var wire 1 , full $end
$var reg 4 - cntr [3:0] $end
$scope begin buffer_gen[0] $end
$upscope $end
$scope begin buffer_gen[1] $end
$upscope $end
$scope begin buffer_gen[2] $end
$upscope $end
$scope begin buffer_gen[3] $end
$upscope $end
$scope begin buffer_gen[4] $end
$upscope $end
$scope begin buffer_gen[5] $end
$upscope $end
$scope begin buffer_gen[6] $end
$upscope $end
$scope begin buffer_gen[7] $end
$upscope $end
$upscope $end
$upscope $end
$enddefinitions $end
#0
$dumpvars
bx -
x,
x+
0*
0)
0(
bx '
bx &
0%
0$
0#
bx "
0!
$end
#1000
1!
#2000
0!
#3000
1!
#4000
0!
#5000
1!
#6000
0!
#7000
1!
#8000
0!
#9000
1!
#10000
0!
#11000
0+
0,
b0 -
1!
1$
#12000
0!
#13000
1!
0$
#14000
0!
#15000
1+
b1 -
b11111111 '
1*
1!
b11111111 "
b11111111 &
1%
#16000
0!
#17000
b0 '
b10 -
1!
b0 "
b0 &
#18000
0!
#19000
b11 -
b11110000 '
1!
b11110000 "
b11110000 &
#20000
0!
#21000
b1111 '
b100 -
1!
b1111 "
b1111 &
#22000
0!
#23000
0*
1!
0%
#24000
0!
#25000
1!
#26000
0!
#27000
1!
#28000
1)
0!
1#
#29000
b11110000 '
b11 -
1!
#30000
0!
#31000
b10 -
b0 '
1!
#32000
0!
#33000
b11111111 '
b1 -
1!
#34000
0!
#35000
0)
0+
b0 -
bx '
1!
#36000
0!
#37000
1!
#38000
0!
0#
#39000
1!
#40000
1*
0!
b11111111 "
b11111111 &
1%
#41000
b11111111 '
1+
b1 -
1!
#42000
0!
b0 "
b0 &
#43000
b10 -
b0 '
1!
#44000
0!
b11110000 "
b11110000 &
#45000
b11110000 '
b11 -
1!
#46000
0!
b1111 "
b1111 &
#47000
b100 -
b1111 '
1!
#48000
0!
b1010101 "
b1010101 &
#49000
b1010101 '
b101 -
1!
#50000
0!
b1101100 "
b1101100 &
#51000
b110 -
b1101100 '
1!
#52000
0!
b10000 "
b10000 &
#53000
b10000 '
b111 -
1!
#54000
1(
1)
0!
b1 "
b1 &
1#
#55000
b1 '
1!
#56000
0(
0)
0*
0!
0#
0%
#57000
1!
#58000
1*
0!
b10000001 "
b10000001 &
1%
#59000
0*
1,
b1000 -
b10000001 '
1!
#60000
0!
0%
#61000
1!
#62000
1)
0!
1#
#63000
0,
b111 -
b1 '
1!
#64000
0)
0!
0#
#65000
1!
#66000
1*
0!
1%
#67000
0*
1,
b1000 -
b10000001 '
1!
#68000
0!
b10000000 "
b10000000 &
#69000
1!
#70000
0!
0%
